Data/Motor_rotation/NewFile1.csv

X,CH1,CH2,CH3,CH4,Start,Increment,
Sequence,Volt,Volt,Volt,Volt,-1.199800e-01,2.000000e-04
0,0.00e+00,-1.60e+01,1.00e+00,6.40e-01,
1,5.92e+02,5.76e+02,-1.08e+00,-1.52e+00,
2,0.00e+00,-4.80e+01,8.80e-01,7.20e-01,
3,5.92e+02,5.76e+02,-1.12e+00,-1.60e+00,
4,5.92e+02,-4.80e+01,-1.04e+00,7.20e-01,
5,-1.60e+01,5.76e+02,9.60e-01,-1.44e+00,
6,-1.60e+01,-3.20e+01,7.60e-01,7.60e-01,
7,5.76e+02,5.76e+02,-1.16e+00,-1.48e+00,
8,5.92e+02,-1.60e+01,-1.28e+00,-1.52e+00,
9,-1.60e+01,5.76e+02,8.40e-01,6.80e-01,
10,5.92e+02,-1.60e+01,8.80e-01,7.60e-01,
11,-1.60e+01,5.76e+02,-1.52e+00,-1.40e+00,
12,0.00e+00,-4.80e+01,7.60e-01,8.00e-01,
13,5.76e+02,5.76e+02,-1.32e+00,-1.20e+00,
14,5.92e+02,5.76e+02,7.20e-01,-1.04e+00,
15,-1.60e+01,-3.20e+01,-1.60e+00,8.00e-01,
16,-1.60e+01,-3.20e+01,7.60e-01,-1.20e+00,
17,5.76e+02,5.76e+02,-1.68e+00,9.60e-01,
18,-1.60e+01,-3.20e+01,6.80e-01,8.80e-01,
19,5.92e+02,5.76e+02,-1.44e+00,-1.12e+00,
20,-3.20e+01,-4.80e+01,6.00e-01,1.00e+00,
21,6.08e+02,5.92e+02,-1.24e+00,-1.08e+00,
22,0.00e+00,-1.60e+01,5.20e-01,9.20e-01,
23,5.92e+02,5.76e+02,-1.68e+00,-1.04e+00,
24,0.00e+00,-4.80e+01,4.80e-01,1.04e+00,
25,5.76e+02,5.76e+02,-1.56e+00,-1.00e+00,
26,0.00e+00,-1.60e+01,6.40e-01,6.00e-01,
27,5.92e+02,5.76e+02,-1.76e+00,-1.08e+00,
28,-1.60e+01,5.76e+02,5.60e-01,-8.40e-01,
29,5.76e+02,-4.80e+01,-1.68e+00,9.60e-01,
30,5.76e+02,-4.80e+01,-1.60e+00,1.16e+00,
31,-1.60e+01,5.76e+02,6.00e-01,-1.04e+00,
32,-1.60e+01,-1.60e+01,6.80e-01,1.04e+00,
33,5.76e+02,5.76e+02,-1.64e+00,-1.04e+00,
34,5.76e+02,-1.60e+01,6.40e-01,1.00e+00,
35,-1.60e+01,5.76e+02,-1.44e+00,-1.08e+00,
36,5.92e+02,-4.80e+01,6.80e-01,-1.08e+00,
37,-1.60e+01,5.76e+02,-1.24e+00,2.40e-01,
38,5.76e+02,-3.20e+01,-1.56e+00,1.60e-01,
39,-1.60e+01,5.76e+02,7.60e-01,-1.08e+00,
40,5.76e+02,5.76e+02,-1.52e+00,9.20e-01,
41,-3.20e+01,-4.80e+01,7.60e-01,-9.60e-01,
42,0.00e+00,-4.80e+01,8.00e-01,9.20e-01,
43,5.76e+02,5.76e+02,-1.44e+00,-1.12e+00,
44,5.92e+02,-1.60e+01,8.40e-01,8.40e-01,
45,-1.60e+01,5.76e+02,-1.28e+00,-1.16e+00,
46,0.00e+00,-1.60e+01,7.20e-01,8.40e-01,
47,5.92e+02,5.76e+02,-1.20e+00,-1.08e+00,
48,5.92e+02,5.76e+02,9.20e-01,8.40e-01,
49,-1.60e+01,-3.20e+01,-1.12e+00,-1.44e+00,
50,5.76e+02,-4.80e+01,9.20e-01,-1.44e+00,
51,-1.60e+01,5.76e+02,-1.08e+00,7.20e-01,
52,5.92e+02,-4.80e+01,1.04e+00,7.20e-01,
53,-3.20e+01,5.92e+02,-1.08e+00,-1.56e+00,
54,-3.20e+01,-4.80e+01,9.60e-01,6.40e-01,
55,6.08e+02,5.92e+02,-1.04e+00,-1.44e+00,
56,6.08e+02,-4.80e+01,1.08e+00,7.20e-01,
57,-3.20e+01,5.92e+02,-1.04e+00,-1.56e+00,
58,0.00e+00,-4.80e+01,1.00e+00,-1.60e+00,
59,5.92e+02,5.76e+02,-1.04e+00,7.20e-01,
60,0.00e+00,5.76e+02,1.00e+00,6.40e-01,
61,5.76e+02,-3.20e+01,-9.60e-01,-1.60e+00,
62,5.92e+02,5.76e+02,1.00e+00,7.20e-01,
63,-3.20e+01,-4.80e+01,-1.04e+00,-1.60e+00,
64,5.76e+02,-1.60e+01,-1.04e+00,5.20e-01,
65,-1.60e+01,5.76e+02,1.08e+00,-1.56e+00,
66,-1.60e+01,5.76e+02,1.08e+00,6.80e-01,
67,5.92e+02,-4.80e+01,-9.60e-01,-1.60e+00,
68,6.08e+02,-4.80e+01,1.04e+00,-1.56e+00,
69,-3.20e+01,5.76e+02,-9.60e-01,6.80e-01,
70,0.00e+00,5.76e+02,1.04e+00,-1.64e+00,
71,5.76e+02,-4.80e+01,-1.00e+00,6.40e-01,
72,5.76e+02,-3.20e+01,9.60e-01,-1.60e+00,
73,-1.60e+01,5.76e+02,-9.60e-01,6.80e-01,
74,-1.60e+01,5.76e+02,8.80e-01,6.40e-01,
75,5.76e+02,-4.80e+01,-1.00e+00,-1.56e+00,
76,5.76e+02,-1.60e+01,1.04e+00,-1.64e+00,
77,-1.60e+01,5.76e+02,-9.60e-01,7.20e-01,
78,5.92e+02,-1.60e+01,1.00e+00,7.20e-01,
79,-1.60e+01,5.76e+02,-1.08e+00,-1.52e+00,
80,0.00e+00,-1.60e+01,1.00e+00,-1.60e+00,
81,5.76e+02,5.76e+02,-1.08e+00,7.20e-01,
82,0.00e+00,5.92e+02,-1.12e+00,6.00e-01,
83,5.76e+02,-4.80e+01,8.80e-01,-1.56e+00,
84,5.76e+02,-1.60e+01,-1.12e+00,7.20e-01,
85,-1.60e+01,5.76e+02,9.20e-01,-1.32e+00,
86,0.00e+00,5.76e+02,8.80e-01,-1.16e+00,
87,5.76e+02,-4.80e+01,-1.04e+00,6.80e-01,
88,5.76e+02,-1.60e+01,7.60e-01,6.80e-01,
89,-1.60e+01,5.76e+02,-1.12e+00,-1.36e+00,
90,-1.60e+01,5.76e+02,8.40e-01,7.20e-01,
91,5.92e+02,-3.20e+01,-1.20e+00,-1.44e+00,
92,-1.60e+01,5.76e+02,8.40e-01,8.00e-01,
93,5.76e+02,-3.20e+01,-1.16e+00,-1.32e+00,
94,5.76e+02,-1.60e+01,8.00e-01,7.60e-01,
95,-1.60e+01,5.76e+02,-1.32e+00,-1.36e+00,
96,0.00e+00,-1.60e+01,8.00e-01,8.40e-01,
97,5.76e+02,5.76e+02,-1.28e+00,-1.44e+00,
98,-1.60e+01,-1.60e+01,7.60e-01,-1.36e+00,
99,5.76e+02,5.76e+02,-1.32e+00,8.40e-01,
100,5.92e+02,-1.60e+01,6.80e-01,8.80e-01,
101,-1.60e+01,5.76e+02,-1.56e+00,-1.20e+00,
102,0.00e+00,-1.60e+01,-1.56e+00,9.20e-01,
103,5.76e+02,5.76e+02,5.60e-01,-1.12e+00,
104,5.92e+02,-1.60e+01,6.00e-01,8.80e-01,
105,-1.60e+01,5.76e+02,-1.68e+00,-1.16e+00,
106,-1.60e+01,-4.80e+01,5.20e-01,8.80e-01,
107,5.92e+02,5.76e+02,-1.68e+00,-4.00e-01,
108,5.76e+02,-3.20e+01,4.80e-01,9.60e-01,
109,-1.60e+01,5.76e+02,-1.44e+00,-9.60e-01,
110,5.76e+02,-1.60e+01,4.80e-01,8.40e-01,
111,-1.60e+01,5.76e+02,-1.36e+00,-1.16e+00,
112,0.00e+00,-1.60e+01,6.00e-01,9.60e-01,
113,5.76e+02,5.76e+02,-1.56e+00,-1.12e+00,
114,5.92e+02,5.76e+02,-1.64e+00,-3.20e-01,
115,-1.60e+01,-4.80e+01,6.00e-01,9.20e-01,
116,0.00e+00,-3.20e+01,-1.60e+00,9.60e-01,
117,5.76e+02,5.76e+02,6.00e-01,-9.60e-01,
118,-1.60e+01,5.76e+02,6.00e-01,9.60e-01,
119,5.92e+02,-3.20e+01,-1.56e+00,-6.00e-01,
120,-1.60e+01,-4.80e+01,-1.56e+00,8.80e-01,
121,6.08e+02,5.76e+02,7.20e-01,-1.04e+00,
122,-1.60e+01,-4.80e+01,-1.44e+00,6.80e-01,
123,5.92e+02,5.76e+02,7.20e-01,-1.16e+00,
124,-1.60e+01,5.92e+02,-1.36e+00,8.80e-01,
125,6.08e+02,-4.80e+01,7.60e-01,-1.16e+00,
126,5.92e+02,5.76e+02,-1.00e+00,8.00e-01,
127,-1.60e+01,-4.80e+01,8.80e-01,-1.24e+00,
128,5.76e+02,-4.80e+01,-1.00e+00,-1.36e+00,
129,-1.60e+01,5.60e+02,8.80e-01,8.40e-01,
130,-1.60e+01,5.92e+02,9.20e-01,7.60e-01,
131,5.92e+02,-3.20e+01,-1.04e+00,-1.32e+00,
132,5.92e+02,-4.80e+01,-9.60e-01,7.60e-01,
133,-1.60e+01,5.92e+02,9.60e-01,-1.52e+00,
134,5.76e+02,-1.60e+01,1.00e+00,6.40e-01,
135,-1.60e+01,5.76e+02,-9.60e-01,-1.52e+00,
136,5.92e+02,5.76e+02,1.00e+00,6.80e-01,
137,-1.60e+01,-3.20e+01,-9.60e-01,-1.48e+00,
138,5.76e+02,-1.60e+01,1.08e+00,7.20e-01,
139,-1.60e+01,5.76e+02,-8.80e-01,-1.40e+00,
140,-1.60e+01,5.76e+02,1.12e+00,6.40e-01,
141,5.92e+02,-4.80e+01,-8.80e-01,-1.44e+00,
142,0.00e+00,-4.80e+01,1.12e+00,6.80e-01,
143,5.92e+02,5.92e+02,-6.80e-01,-1.48e+00,
144,5.92e+02,-1.60e+01,1.16e+00,-1.56e+00,
145,-1.60e+01,5.76e+02,-6.80e-01,6.80e-01,
146,5.76e+02,-1.60e+01,1.08e+00,6.80e-01,
147,-1.60e+01,5.76e+02,-7.60e-01,-1.56e+00,
148,5.76e+02,5.76e+02,1.16e+00,6.40e-01,
149,-1.60e+01,-3.20e+01,-8.40e-01,-1.56e+00,
150,5.76e+02,-1.60e+01,-8.40e-01,6.00e-01,
151,-1.60e+01,5.76e+02,1.20e+00,-1.56e+00,
152,5.76e+02,-1.60e+01,-8.00e-01,6.40e-01,
153,-1.60e+01,5.76e+02,1.00e+00,-1.20e+00,
154,5.92e+02,5.76e+02,-8.00e-01,6.80e-01,
155,-3.20e+01,-4.80e+01,1.20e+00,-1.52e+00,
156,-1.60e+01,5.76e+02,1.16e+00,6.40e-01,
157,5.92e+02,-4.80e+01,-8.40e-01,-1.44e+00,
158,5.76e+02,5.76e+02,1.20e+00,6.00e-01,
159,-1.60e+01,-4.80e+01,-8.00e-01,-1.24e+00,
160,0.00e+00,-3.20e+01,1.20e+00,7.20e-01,
161,5.76e+02,5.76e+02,-8.80e-01,-1.40e+00,
162,-1.60e+01,5.76e+02,1.16e+00,5.60e-01,
163,5.76e+02,-3.20e+01,-8.80e-01,-1.48e+00,
164,-1.60e+01,-1.60e+01,1.08e+00,-1.52e+00,
165,5.76e+02,5.76e+02,-9.20e-01,6.80e-01,
166,-1.60e+01,-1.60e+01,1.12e+00,7.60e-01,
167,5.76e+02,5.76e+02,-9.20e-01,-1.04e+00,
168,5.92e+02,-4.80e+01,8.80e-01,8.00e-01,
169,-3.20e+01,5.76e+02,-9.20e-01,-1.32e+00,
170,5.76e+02,5.76e+02,9.60e-01,8.00e-01,
171,-1.60e+01,-3.20e+01,-9.20e-01,-1.16e+00,
172,-1.60e+01,5.76e+02,-1.00e+00,8.00e-01,
173,5.76e+02,-4.80e+01,9.60e-01,-1.40e+00,
174,0.00e+00,-3.20e+01,9.60e-01,8.00e-01,
175,5.92e+02,5.76e+02,-1.04e+00,-1.20e+00,
176,0.00e+00,-1.60e+01,9.20e-01,8.40e-01,
177,5.76e+02,5.76e+02,-1.12e+00,-1.12e+00,
178,0.00e+00,-1.60e+01,8.40e-01,8.00e-01,
179,5.92e+02,5.76e+02,-1.20e+00,-1.36e+00,
180,0.00e+00,5.76e+02,7.60e-01,8.00e-01,
181,5.92e+02,-3.20e+01,-1.40e+00,-1.20e+00,
182,0.00e+00,5.92e+02,8.00e-01,-1.12e+00,
183,5.76e+02,-4.80e+01,-1.44e+00,8.80e-01,
184,-1.60e+01,-3.20e+01,7.20e-01,-1.20e+00,
185,5.76e+02,5.76e+02,-1.52e+00,8.80e-01,
186,0.00e+00,-1.60e+01,5.20e-01,8.80e-01,
187,5.92e+02,5.76e+02,-1.48e+00,-1.16e+00,
188,0.00e+00,-1.60e+01,6.40e-01,8.00e-01,
189,5.92e+02,5.76e+02,-1.60e+00,-1.04e+00,
190,6.08e+02,-4.80e+01,4.80e-01,9.20e-01,
191,-3.20e+01,5.92e+02,-1.56e+00,-1.24e+00,
192,5.92e+02,-1.60e+01,6.40e-01,-1.20e+00,
193,-1.60e+01,5.76e+02,-1.56e+00,9.20e-01,
194,0.00e+00,5.76e+02,6.00e-01,-1.20e+00,
195,5.76e+02,-3.20e+01,-1.52e+00,9.20e-01,
196,-1.60e+01,-1.60e+01,6.80e-01,8.40e-01,
197,5.92e+02,5.76e+02,-1.56e+00,-1.16e+00,
198,5.76e+02,-1.60e+01,5.60e-01,-1.24e+00,
199,-1.60e+01,5.76e+02,-1.44e+00,9.60e-01,
200,-1.60e+01,-3.20e+01,-1.52e+00,8.80e-01,
201,5.92e+02,5.76e+02,6.80e-01,-1.20e+00,
202,0.00e+00,5.76e+02,7.20e-01,-1.24e+00,
203,5.92e+02,-4.80e+01,-1.24e+00,9.60e-01,
204,5.92e+02,5.76e+02,6.40e-01,8.40e-01,
205,-1.60e+01,-3.20e+01,-1.44e+00,-1.20e+00,
206,-1.60e+01,-4.80e+01,7.60e-01,8.40e-01,
207,5.76e+02,5.76e+02,-1.08e+00,-1.24e+00,
208,-1.60e+01,-1.60e+01,8.40e-01,-1.08e+00,
209,5.76e+02,5.76e+02,-1.16e+00,9.20e-01,
210,5.92e+02,-1.60e+01,8.40e-01,-1.24e+00,
211,-1.60e+01,5.76e+02,-1.08e+00,8.80e-01,
212,5.92e+02,-1.60e+01,-1.00e+00,8.80e-01,
213,-1.60e+01,5.60e+02,8.40e-01,-1.36e+00,
214,5.76e+02,-1.60e+01,8.80e-01,8.40e-01,
215,-1.60e+01,5.76e+02,-1.08e+00,-1.24e+00,
216,5.92e+02,5.76e+02,1.08e+00,8.40e-01,
217,-1.60e+01,-4.80e+01,-1.00e+00,-1.52e+00,
218,0.00e+00,-4.80e+01,1.08e+00,-1.40e+00,
219,5.76e+02,5.76e+02,-1.00e+00,8.80e-01,
220,0.00e+00,-4.80e+01,1.04e+00,-1.56e+00,
221,5.76e+02,5.76e+02,-9.20e-01,8.80e-01,
222,-1.60e+01,-1.60e+01,1.12e+00,-1.20e+00,
223,5.92e+02,5.76e+02,-8.00e-01,8.40e-01,
224,-1.60e+01,-1.60e+01,-9.20e-01,8.80e-01,
225,5.92e+02,5.76e+02,1.16e+00,-1.40e+00,
226,0.00e+00,-3.20e+01,1.16e+00,8.40e-01,
227,5.76e+02,5.76e+02,-9.20e-01,-1.52e+00,
228,5.76e+02,-1.60e+01,1.24e+00,8.40e-01,
229,-1.60e+01,5.76e+02,-9.60e-01,-1.44e+00,
230,0.00e+00,-1.60e+01,1.16e+00,8.40e-01,
231,5.76e+02,5.76e+02,-9.20e-01,-1.56e+00,
232,0.00e+00,-1.60e+01,1.12e+00,-1.44e+00,
233,5.76e+02,5.76e+02,-9.20e-01,8.00e-01,
234,5.76e+02,5.76e+02,1.20e+00,-1.52e+00,
235,-1.60e+01,-3.20e+01,-9.20e-01,8.00e-01,
236,5.92e+02,-3.20e+01,1.28e+00,8.80e-01,
237,-1.60e+01,5.76e+02,-9.60e-01,-1.44e+00,
238,5.76e+02,-3.20e+01,1.32e+00,8.40e-01,
239,-1.60e+01,5.76e+02,-9.60e-01,-1.56e+00,
240,5.92e+02,-1.60e+01,1.20e+00,8.40e-01,
241,-1.60e+01,5.76e+02,-9.20e-01,-1.60e+00,
242,-1.60e+01,-1.60e+01,1.32e+00,-1.24e+00,
243,5.92e+02,5.60e+02,-9.60e-01,8.40e-01,
244,-1.60e+01,-1.60e+01,1.12e+00,-1.40e+00,
245,5.92e+02,5.76e+02,-9.20e-01,6.80e-01,
246,0.00e+00,5.76e+02,1.36e+00,8.00e-01,
247,5.92e+02,-3.20e+01,-9.20e-01,-1.40e+00,
248,-1.60e+01,-1.60e+01,1.12e+00,8.40e-01,
249,5.92e+02,5.76e+02,-9.20e-01,-1.52e+00,
250,-1.60e+01,-3.20e+01,-9.60e-01,7.60e-01,
251,5.92e+02,5.76e+02,1.24e+00,-1.52e+00,
252,5.92e+02,5.76e+02,1.20e+00,8.40e-01,
253,-1.60e+01,-4.80e+01,-1.00e+00,-1.56e+00,
254,-1.60e+01,-1.60e+01,1.08e+00,-1.56e+00,
255,5.76e+02,5.76e+02,-8.80e-01,8.40e-01,
256,0.00e+00,5.76e+02,1.00e+00,8.00e-01,
257,5.76e+02,-4.80e+01,-1.00e+00,-1.52e+00,
258,5.76e+02,-3.20e+01,-1.08e+00,-1.44e+00,
259,-1.60e+01,5.76e+02,1.00e+00,8.00e-01,
260,0.00e+00,-3.20e+01,1.00e+00,8.80e-01,
261,5.76e+02,5.76e+02,-1.12e+00,-1.36e+00,
262,0.00e+00,-3.20e+01,9.60e-01,-1.60e+00,
263,5.76e+02,5.76e+02,-1.24e+00,8.40e-01,
264,5.76e+02,5.76e+02,9.20e-01,8.80e-01,
265,-1.60e+01,-4.80e+01,-1.28e+00,-1.60e+00,
266,5.76e+02,-1.60e+01,7.60e-01,7.60e-01,
267,-1.60e+01,5.76e+02,-1.52e+00,-1.36e+00,
268,5.76e+02,-1.60e+01,6.80e-01,8.80e-01,
269,-1.60e+01,5.76e+02,-1.56e+00,-1.24e+00,
270,0.00e+00,-3.20e+01,8.40e-01,8.80e-01,
271,5.92e+02,5.76e+02,-1.56e+00,-1.32e+00,
272,-1.60e+01,-3.20e+01,-1.40e+00,8.00e-01,
273,5.92e+02,5.76e+02,7.20e-01,-1.08e+00,
274,5.76e+02,5.76e+02,8.40e-01,8.40e-01,
275,-1.60e+01,-4.80e+01,-1.12e+00,-1.40e+00,
276,-1.60e+01,-1.60e+01,7.60e-01,8.40e-01,
277,5.76e+02,5.76e+02,-1.48e+00,-1.52e+00,
278,0.00e+00,-1.60e+01,-1.44e+00,-1.36e+00,
279,5.92e+02,5.76e+02,7.20e-01,9.20e-01,
280,0.00e+00,-1.60e+01,-1.56e+00,8.40e-01,
281,6.08e+02,5.92e+02,8.40e-01,-1.40e+00,
282,-1.60e+01,5.76e+02,7.60e-01,9.20e-01,
283,5.76e+02,-4.80e+01,-1.56e+00,-1.48e+00,
284,5.92e+02,-1.60e+01,8.80e-01,8.80e-01,
285,-1.60e+01,5.76e+02,-1.52e+00,-1.44e+00,
286,0.00e+00,-1.60e+01,-1.32e+00,8.80e-01,
287,5.92e+02,5.76e+02,9.20e-01,-1.52e+00,
288,0.00e+00,-1.60e+01,-1.16e+00,8.80e-01,
289,5.76e+02,5.76e+02,8.80e-01,-1.28e+00,
290,0.00e+00,-1.60e+01,-1.12e+00,-1.16e+00,
291,5.92e+02,5.76e+02,1.00e+00,9.60e-01,
292,-1.60e+01,-1.60e+01,9.60e-01,7.60e-01,
293,5.92e+02,5.76e+02,-1.12e+00,-1.40e+00,
294,-1.60e+01,-3.20e+01,-1.04e+00,8.40e-01,
295,5.92e+02,5.76e+02,1.04e+00,-1.44e+00,
296,5.92e+02,-1.60e+01,1.04e+00,8.80e-01,
297,-1.60e+01,5.76e+02,-1.04e+00,-1.36e+00,
298,0.00e+00,-1.60e+01,1.12e+00,-1.44e+00,
299,5.76e+02,5.60e+02,-8.40e-01,9.20e-01,
300,5.76e+02,-3.20e+01,-9.60e-01,-1.44e+00,
301,-1.60e+01,5.76e+02,1.16e+00,8.80e-01,
302,0.00e+00,5.76e+02,-9.20e-01,9.20e-01,
303,5.76e+02,-3.20e+01,1.12e+00,-1.44e+00,
304,-1.60e+01,5.76e+02,1.24e+00,9.60e-01,
305,5.76e+02,-3.20e+01,-9.60e-01,-1.28e+00,
306,5.76e+02,-1.60e+01,-9.20e-01,8.80e-01,
307,-1.60e+01,5.76e+02,1.24e+00,-1.52e+00,
308,0.00e+00,-1.60e+01,1.20e+00,9.20e-01,
309,5.76e+02,5.76e+02,-9.60e-01,-1.28e+00,
310,5.76e+02,-1.60e+01,-8.80e-01,8.80e-01,
311,-1.60e+01,5.76e+02,1.36e+00,-1.48e+00,
312,-3.20e+01,5.92e+02,1.32e+00,-1.44e+00,
313,5.92e+02,-3.20e+01,-9.20e-01,8.00e-01,
314,0.00e+00,-1.60e+01,-9.20e-01,8.40e-01,
315,5.76e+02,5.76e+02,1.20e+00,-1.44e+00,
316,-1.60e+01,-1.60e+01,1.28e+00,8.40e-01,
317,5.92e+02,5.76e+02,-8.40e-01,-1.20e+00,
318,0.00e+00,-1.60e+01,1.24e+00,-1.52e+00,
319,5.76e+02,5.76e+02,-9.20e-01,8.80e-01,
320,0.00e+00,-1.60e+01,1.20e+00,8.40e-01,
321,5.76e+02,5.76e+02,-8.80e-01,-1.48e+00,
322,0.00e+00,5.76e+02,1.28e+00,7.60e-01,
323,5.92e+02,-3.20e+01,-8.40e-01,-1.40e+00,
324,5.92e+02,5.76e+02,1.28e+00,8.80e-01,
325,-1.60e+01,-3.20e+01,-9.60e-01,-1.52e+00,
326,-1.60e+01,-3.20e+01,1.28e+00,8.40e-01,
327,5.92e+02,5.60e+02,-1.00e+00,-1.24e+00,
328,-1.60e+01,-1.60e+01,1.24e+00,8.80e-01,
329,5.76e+02,5.76e+02,-9.60e-01,-1.08e+00,
330,5.92e+02,-1.60e+01,1.08e+00,7.60e-01,
331,-1.60e+01,5.60e+02,-9.20e-01,-1.56e+00,
332,-1.60e+01,-3.20e+01,-9.60e-01,-1.52e+00,
333,5.92e+02,5.76e+02,1.28e+00,8.00e-01,
334,-1.60e+01,-1.60e+01,-9.60e-01,8.40e-01,
335,5.92e+02,5.76e+02,1.08e+00,-1.56e+00,
336,-1.60e+01,5.76e+02,1.08e+00,8.00e-01,
337,5.76e+02,-4.80e+01,-1.00e+00,-1.36e+00,
338,5.76e+02,5.76e+02,-1.04e+00,8.00e-01,
339,-1.60e+01,-4.80e+01,1.04e+00,-1.36e+00,
340,-1.60e+01,-4.80e+01,-1.08e+00,-1.32e+00,
341,5.76e+02,5.76e+02,9.20e-01,7.60e-01,
342,-1.60e+01,-1.60e+01,-1.12e+00,7.60e-01,
343,5.92e+02,5.60e+02,9.60e-01,-1.44e+00,
344,5.76e+02,-1.60e+01,8.40e-01,6.80e-01,
345,-1.60e+01,5.76e+02,-1.12e+00,-1.52e+00,
346,-1.60e+01,-1.60e+01,9.60e-01,6.00e-01,
347,5.92e+02,5.76e+02,-1.08e+00,-1.56e+00,
348,-1.60e+01,-3.20e+01,9.20e-01,7.20e-01,
349,5.76e+02,5.76e+02,-1.28e+00,-1.60e+00,
350,-1.60e+01,-1.60e+01,-1.16e+00,6.00e-01,
351,5.92e+02,5.76e+02,9.20e-01,-1.56e+00,
352,-1.60e+01,5.92e+02,-1.00e+00,7.20e-01,
353,5.92e+02,-4.80e+01,8.80e-01,-1.64e+00,
354,-1.60e+01,-4.80e+01,-1.28e+00,-1.56e+00,
355,5.76e+02,5.76e+02,8.00e-01,7.20e-01,
356,5.92e+02,-4.80e+01,8.80e-01,6.80e-01,
357,-1.60e+01,5.76e+02,-1.36e+00,-1.52e+00,
358,-1.60e+01,-1.60e+01,8.80e-01,5.60e-01,
359,5.92e+02,5.76e+02,-1.24e+00,-1.56e+00,
360,-1.60e+01,-3.20e+01,8.40e-01,7.20e-01,
361,5.76e+02,5.76e+02,-1.12e+00,-1.52e+00,
362,0.00e+00,-1.60e+01,8.40e-01,-1.56e+00,
363,5.76e+02,5.76e+02,-1.16e+00,7.60e-01,
364,0.00e+00,-1.60e+01,8.80e-01,-1.20e+00,
365,5.76e+02,5.76e+02,-1.12e+00,7.60e-01,
366,0.00e+00,-1.60e+01,-1.12e+00,-1.52e+00,
367,5.92e+02,5.76e+02,9.20e-01,7.20e-01,
368,0.00e+00,-1.60e+01,1.20e-01,8.00e-01,
369,5.92e+02,5.76e+02,-1.08e+00,-1.52e+00,
370,-1.60e+01,5.76e+02,1.00e+00,8.40e-01,
371,5.92e+02,-4.80e+01,-1.08e+00,-1.44e+00,
372,6.08e+02,-4.80e+01,2.00e-01,8.00e-01,
373,-3.20e+01,5.92e+02,-9.20e-01,-1.40e+00,
374,6.08e+02,-4.80e+01,2.00e-01,8.00e-01,
375,-1.60e+01,5.76e+02,-1.00e+00,-1.36e+00,
376,5.76e+02,-3.20e+01,3.20e-01,-1.32e+00,
377,-1.60e+01,5.76e+02,-8.40e-01,8.40e-01,
378,5.76e+02,-1.60e+01,9.20e-01,8.80e-01,
379,-1.60e+01,5.76e+02,-9.60e-01,-1.32e+00,
380,-1.60e+01,-3.20e+01,1.32e+00,8.80e-01,
381,5.76e+02,5.76e+02,-9.60e-01,-1.24e+00,
382,-1.60e+01,-1.60e+01,-9.20e-01,-1.32e+00,
383,5.76e+02,5.76e+02,1.36e+00,8.00e-01,
384,0.00e+00,-4.80e+01,1.28e+00,8.40e-01,
385,5.76e+02,5.76e+02,-8.80e-01,-1.28e+00,
386,-1.60e+01,5.76e+02,1.36e+00,9.20e-01,
387,5.92e+02,-3.20e+01,-8.40e-01,-1.12e+00,
388,-3.20e+01,-4.80e+01,1.40e+00,-1.16e+00,
389,5.92e+02,5.76e+02,-8.80e-01,9.20e-01,
390,-1.60e+01,5.76e+02,-8.80e-01,-1.16e+00,
391,5.76e+02,-3.20e+01,1.28e+00,8.40e-01,
392,-1.60e+01,-4.80e+01,1.40e+00,8.80e-01,
393,5.92e+02,5.60e+02,-9.20e-01,-9.60e-01,
394,5.76e+02,5.76e+02,1.20e+00,1.00e+00,
395,-1.60e+01,-3.20e+01,-8.80e-01,-1.12e+00,
396,5.76e+02,-1.60e+01,1.32e+00,8.80e-01,
397,-1.60e+01,5.76e+02,-8.40e-01,-1.12e+00,
398,0.00e+00,-1.60e+01,-8.40e-01,-1.08e+00,
399,5.92e+02,5.76e+02,1.20e+00,8.00e-01,
400,0.00e+00,-1.60e+01,1.20e+00,-9.60e-01,
401,5.76e+02,5.76e+02,-9.60e-01,1.04e+00,
402,-1.60e+01,5.76e+02,-9.60e-01,1.00e+00,
403,5.92e+02,-4.80e+01,1.12e+00,-9.60e-01,
404,-1.60e+01,-3.20e+01,1.04e+00,8.80e-01,
405,5.92e+02,5.76e+02,-9.60e-01,-1.04e+00,
406,-1.60e+01,-3.20e+01,1.04e+00,1.00e+00,
407,5.92e+02,5.76e+02,-9.60e-01,-9.60e-01,
408,-1.60e+01,-1.60e+01,1.08e+00,9.60e-01,
409,5.76e+02,5.76e+02,-1.00e+00,-1.08e+00,
410,5.92e+02,-3.20e+01,1.08e+00,9.60e-01,
411,-1.60e+01,5.76e+02,-1.04e+00,-1.08e+00,
412,5.92e+02,5.76e+02,-9.60e-01,9.60e-01,
413,-1.60e+01,-3.20e+01,1.04e+00,-1.08e+00,
414,-1.60e+01,5.76e+02,1.00e+00,8.80e-01,
415,5.92e+02,-3.20e+01,-1.00e+00,-1.20e+00,
416,-1.60e+01,-1.60e+01,1.12e+00,9.20e-01,
417,5.76e+02,5.76e+02,-1.08e+00,-1.20e+00,
418,-1.60e+01,-1.60e+01,1.08e+00,8.00e-01,
419,5.92e+02,5.76e+02,-1.08e+00,-1.16e+00,
420,0.00e+00,-4.80e+01,1.08e+00,8.00e-01,
421,5.76e+02,5.76e+02,-1.08e+00,-1.04e+00,
422,5.76e+02,-1.60e+01,1.00e+00,8.80e-01,
423,-1.60e+01,5.76e+02,-1.00e+00,-1.24e+00,
424,-1.60e+01,5.76e+02,-1.04e+00,8.00e-01,
425,5.92e+02,-3.20e+01,9.60e-01,-1.36e+00,
426,-1.60e+01,5.76e+02,9.60e-01,8.00e-01,
427,5.92e+02,-3.20e+01,-1.12e+00,-1.52e+00,
428,-1.60e+01,-1.60e+01,1.00e+00,7.60e-01,
429,5.76e+02,5.76e+02,-1.12e+00,-1.56e+00,
430,5.76e+02,-1.60e+01,9.20e-01,7.60e-01,
431,-1.60e+01,5.76e+02,-1.12e+00,-1.52e+00,
432,0.00e+00,-1.60e+01,-1.04e+00,7.20e-01,
433,5.92e+02,5.76e+02,9.60e-01,-1.48e+00,
434,5.92e+02,5.76e+02,9.60e-01,-1.56e+00,
435,-1.60e+01,-3.20e+01,-1.16e+00,6.00e-01,
436,-1.60e+01,-3.20e+01,9.20e-01,6.80e-01,
437,5.76e+02,5.76e+02,-1.20e+00,-1.68e+00,
438,-1.60e+01,-1.60e+01,8.00e-01,6.80e-01,
439,5.76e+02,5.76e+02,-1.20e+00,-1.36e+00,
440,5.76e+02,5.76e+02,9.60e-01,6.80e-01,
441,-1.60e+01,-4.80e+01,-1.08e+00,-1.52e+00,
442,5.76e+02,-1.60e+01,9.60e-01,7.20e-01,
443,-1.60e+01,5.76e+02,-1.16e+00,-1.52e+00,
444,5.76e+02,-1.60e+01,-3.60e-01,-1.52e+00,
445,-1.60e+01,5.76e+02,9.60e-01,7.20e-01,
446,-1.60e+01,-3.20e+01,1.00e+00,-1.20e+00,
447,5.76e+02,5.92e+02,-1.12e+00,7.60e-01,
448,-3.20e+01,-4.80e+01,1.04e+00,-1.56e+00,
449,5.76e+02,5.76e+02,-1.16e+00,7.60e-01,
450,5.76e+02,-1.60e+01,-1.12e+00,8.00e-01,
451,-1.60e+01,5.92e+02,1.04e+00,-1.48e+00,
452,5.92e+02,-3.20e+01,1.00e+00,8.00e-01,
453,-1.60e+01,5.92e+02,-1.00e+00,-1.40e+00,
454,6.08e+02,5.92e+02,1.00e+00,-1.28e+00,
455,-3.20e+01,-4.80e+01,-1.04e+00,8.80e-01,
456,-1.60e+01,-4.80e+01,1.08e+00,8.80e-01,
457,5.92e+02,5.76e+02,-9.60e-01,-1.16e+00,
458,-1.60e+01,-4.80e+01,9.20e-01,8.40e-01,
459,5.76e+02,5.76e+02,-1.12e+00,-1.12e+00,
460,-1.60e+01,-4.80e+01,8.80e-01,9.60e-01,
461,5.76e+02,5.76e+02,-1.12e+00,-1.04e+00,
462,-1.60e+01,-1.60e+01,1.00e+00,9.20e-01,
463,5.92e+02,5.76e+02,-1.00e+00,-1.04e+00,
464,5.92e+02,-1.60e+01,1.12e+00,1.00e+00,
465,-1.60e+01,5.76e+02,-1.12e+00,-1.12e+00,
